<?xml version="1.0" encoding="UTF-8"?>
<svg width="254px" height="127px" viewBox="0 0 254 127" version="1.1" xmlns="http://www.w3.org/2000/svg" xmlns:xlink="http://www.w3.org/1999/xlink">
    <!-- Generator: Sketch 52.5 (67469) - http://www.bohemiancoding.com/sketch -->
    <title>topcoder-stacked-black</title>
    <desc>Created with Sketch.</desc>
    <g id="Symbols" stroke="none" stroke-width="1" fill="none" fill-rule="evenodd">
        <g id="logo/topcoder/stacked/black" fill="#2A2A2A">
            <g id="topcoder-stacked-black">
                <g id="wordmark" transform="translate(0.000000, 68.000000)">
                    <path d="M5.4001,39.3796 L5.4001,16.1576 L0.0001,16.1576 L0.0001,13.0536 L5.4001,13.0536 L5.4001,4.1426 L8.9771,4.1426 L8.9771,13.0536 L15.5931,13.0536 L15.5931,16.1576 L8.9771,16.1576 L8.9771,38.8396 C8.9771,41.4726 10.0571,43.2956 12.3531,43.2956 C13.9061,43.2956 15.2551,42.5526 15.9981,41.7426 L17.3481,44.4426 C16.0661,45.6576 14.5131,46.4686 11.8121,46.4686 C7.4921,46.4686 5.4001,43.8356 5.4001,39.3796" id="Fill-1"></path>
                    <path d="M47.656,29.322 C47.656,22.098 43.404,15.416 35.708,15.416 C28.147,15.416 23.827,22.098 23.827,29.322 C23.827,36.612 28.147,43.296 35.708,43.296 C43.404,43.296 47.656,36.612 47.656,29.322 M20.047,29.322 C20.047,19.803 26.189,12.243 35.708,12.243 C45.361,12.243 51.436,19.803 51.436,29.322 C51.436,38.84 45.361,46.468 35.708,46.468 C26.189,46.468 20.047,38.84 20.047,29.322" id="Fill-3"></path>
                    <path d="M84.781,29.322 C84.781,21.424 80.664,15.416 73.373,15.416 C68.849,15.416 64.529,18.116 62.639,21.221 L62.639,37.355 C64.529,40.46 68.849,43.296 73.373,43.296 C80.664,43.296 84.781,37.219 84.781,29.322 M62.639,40.392 L62.639,58.079 L59.129,58.079 L59.129,13.053 L62.639,13.053 L62.639,18.183 C64.935,14.876 69.12,12.243 73.98,12.243 C82.688,12.243 88.561,18.858 88.561,29.322 C88.561,39.718 82.688,46.468 73.98,46.468 C69.39,46.468 65.272,44.105 62.639,40.392" id="Fill-5"></path>
                    <path d="M94.1609,29.322 C94.1609,19.803 100.4389,12.243 110.0239,12.243 C115.6949,12.243 118.9349,14.47 121.5679,17.778 L119.1379,19.938 C116.7749,16.698 113.8049,15.416 110.2259,15.416 C102.5989,15.416 97.9409,21.491 97.9409,29.322 C97.9409,37.152 102.5989,43.296 110.2259,43.296 C113.8049,43.296 116.7749,41.945 119.1379,38.705 L121.5679,40.865 C118.9349,44.24 115.6949,46.468 110.0239,46.468 C100.4389,46.468 94.1609,38.84 94.1609,29.322" id="Fill-7"></path>
                    <path d="M153.7644,29.322 C153.7644,22.098 149.5114,15.416 141.8164,15.416 C134.2554,15.416 129.9354,22.098 129.9354,29.322 C129.9354,36.612 134.2554,43.296 141.8164,43.296 C149.5114,43.296 153.7644,36.612 153.7644,29.322 M126.1554,29.322 C126.1554,19.803 132.2974,12.243 141.8164,12.243 C151.4694,12.243 157.5444,19.803 157.5444,29.322 C157.5444,38.84 151.4694,46.468 141.8164,46.468 C132.2974,46.468 126.1554,38.84 126.1554,29.322" id="Fill-9"></path>
                    <path d="M189.2693,37.49 L189.2693,21.356 C187.3783,18.183 183.1263,15.416 178.5363,15.416 C171.3123,15.416 167.1273,21.491 167.1273,29.389 C167.1273,37.287 171.3123,43.296 178.5363,43.296 C183.1263,43.296 187.3783,40.595 189.2693,37.49 Z M189.2693,45.658 L189.2693,40.46 C186.9743,43.836 182.7893,46.469 177.9283,46.469 C169.2883,46.469 163.3473,39.852 163.3473,29.389 C163.3473,19.061 169.2883,12.243 177.9283,12.243 C182.5853,12.243 186.6363,14.605 189.2693,18.318 L189.2693,0.633 L192.8473,0.633 L192.8473,45.658 L189.2693,45.658 Z" id="Fill-11"></path>
                    <path d="M216.2009,15.281 C208.5059,15.281 204.6579,22.031 204.3879,27.702 L228.0819,27.702 C228.0139,22.166 224.3689,15.281 216.2009,15.281 M200.5399,29.322 C200.5399,19.871 207.2219,12.243 216.2679,12.243 C226.1909,12.243 231.6599,20.141 231.6599,29.524 L231.6599,30.469 L204.3879,30.469 C204.7239,37.557 209.4509,43.43 217.1459,43.43 C221.2629,43.43 225.0439,41.878 227.8119,38.908 L229.6349,41.203 C226.3939,44.578 222.2759,46.468 216.8759,46.468 C207.3569,46.468 200.5399,39.38 200.5399,29.322" id="Fill-13"></path>
                    <path d="M239.3513,45.658 L239.3513,13.054 L242.8613,13.054 L242.8613,18.656 C245.6293,15.011 249.3413,12.378 253.8653,12.378 L253.8653,16.226 C253.2573,16.091 252.7853,16.091 252.1103,16.091 C248.8023,16.091 244.3473,19.061 242.8613,21.896 L242.8613,45.658 L239.3513,45.658 Z" id="Fill-15"></path>
                </g>
                <g id="mark" transform="translate(44.000000, 0.000000)">
                    <path d="M82.9597,28.3738 C84.3497,27.8318 85.6497,27.3188 86.8287,26.8438 C96.1477,23.0808 108.8247,19.3098 121.0257,17.1298 C109.9847,6.4828 96.1327,0.0008 82.9597,0.0008 C69.7877,0.0008 55.9357,6.4828 44.8947,17.1298 C57.0957,19.3098 69.7717,23.0808 79.0917,26.8438 C80.2707,27.3188 81.5697,27.8318 82.9597,28.3738" id="Fill-18"></path>
                    <path d="M78.8396,30.5418 C78.8046,30.5268 78.7696,30.5138 78.7336,30.4988 C78.7296,30.4978 78.7266,30.4968 78.7226,30.4948 C78.1666,30.2748 77.6286,30.0608 77.1156,29.8538 C77.1086,29.8508 77.0996,29.8468 77.0916,29.8438 C76.5686,29.6328 76.0306,29.4208 75.4876,29.2098 C75.4176,29.1838 75.3486,29.1558 75.2786,29.1298 C75.2386,29.1138 75.1996,29.0988 75.1596,29.0828 C74.6256,28.8778 74.0826,28.6718 73.5296,28.4668 C73.5176,28.4618 73.5046,28.4568 73.4906,28.4518 C73.4176,28.4258 73.3436,28.3978 73.2706,28.3708 C72.7416,28.1768 72.2056,27.9808 71.6616,27.7878 C71.5946,27.7638 71.5276,27.7398 71.4606,27.7158 C70.8736,27.5078 70.2776,27.3008 69.6756,27.0948 C69.6136,27.0738 69.5536,27.0538 69.4926,27.0318 C69.4506,27.0188 69.4086,27.0038 69.3666,26.9898 C68.1176,26.5648 66.8366,26.1458 65.5286,25.7348 C65.4796,25.7198 65.4286,25.7028 65.3786,25.6878 C65.3516,25.6788 65.3246,25.6708 65.2986,25.6618 C64.6406,25.4558 63.9766,25.2518 63.3066,25.0508 C63.2746,25.0408 63.2416,25.0308 63.2106,25.0208 C63.1926,25.0168 63.1736,25.0108 63.1536,25.0048 C61.7726,24.5908 60.3666,24.1858 58.9436,23.7938 C58.9326,23.7908 58.9206,23.7878 58.9086,23.7848 C58.8646,23.7718 58.8196,23.7598 58.7766,23.7478 C57.3286,23.3508 55.8646,22.9668 54.3896,22.5998 C54.3706,22.5948 54.3536,22.5908 54.3346,22.5858 C53.5866,22.3988 52.8366,22.2178 52.0846,22.0408 L52.0836,22.0398 L52.0576,22.0338 C50.5496,21.6788 49.0346,21.3418 47.5196,21.0258 L47.4896,21.0208 C47.4776,21.0178 47.4656,21.0158 47.4526,21.0128 C45.9306,20.6958 44.4086,20.3998 42.8946,20.1298 C33.5026,29.1858 26.1496,41.2558 22.9786,54.9158 L22.8326,55.5208 C27.3146,55.7068 31.4356,53.2768 32.7276,52.5568 C49.1656,43.3778 69.1936,33.2318 80.9596,31.3738 C80.9676,31.3768 80.9756,31.3808 80.9836,31.3838 C80.2406,31.0938 79.5266,30.8128 78.8396,30.5418" id="Fill-20"></path>
                    <path d="M19.6658,53.9158 C22.8368,40.2558 29.9068,28.1868 39.2978,19.1318 C21.1568,15.8918 4.3528,16.1718 0.9188,25.2498 C-1.5022,31.6528 3.4528,41.3138 11.9588,50.8468 C14.2918,53.4608 16.9648,55.0418 19.5198,55.1468 C19.5198,55.1468 19.5278,54.9518 19.5698,54.5748 C19.6138,54.1748 19.6658,53.9158 19.6658,53.9158" id="Fill-22"></path>
                    <path d="M87.0251,30.5418 C87.0601,30.5268 87.0961,30.5138 87.1311,30.4988 C87.1351,30.4978 87.1381,30.4968 87.1421,30.4948 C87.6981,30.2748 88.2361,30.0608 88.7491,29.8538 C88.7571,29.8508 88.7661,29.8468 88.7731,29.8438 C89.2961,29.6328 89.8341,29.4208 90.3781,29.2098 C90.4471,29.1838 90.5161,29.1558 90.5861,29.1298 C90.6261,29.1138 90.6651,29.0988 90.7051,29.0828 C91.2391,28.8778 91.7821,28.6718 92.3351,28.4668 C92.3471,28.4618 92.3611,28.4568 92.3741,28.4518 C92.4471,28.4258 92.5211,28.3978 92.5951,28.3708 C93.1241,28.1768 93.6601,27.9808 94.2041,27.7878 C94.2711,27.7638 94.3371,27.7398 94.4051,27.7158 C94.9921,27.5078 95.5881,27.3008 96.1901,27.0948 C96.2511,27.0738 96.3121,27.0538 96.3731,27.0318 C96.4151,27.0188 96.4571,27.0038 96.4981,26.9898 C97.7481,26.5648 99.0281,26.1458 100.3361,25.7348 C100.3861,25.7198 100.4361,25.7028 100.4861,25.6878 C100.5131,25.6788 100.5401,25.6708 100.5671,25.6618 C101.2251,25.4558 101.8881,25.2518 102.5591,25.0508 C102.5901,25.0408 102.6231,25.0308 102.6551,25.0208 C102.6731,25.0168 102.6921,25.0108 102.7111,25.0048 C104.0921,24.5908 105.4991,24.1858 106.9211,23.7938 C106.9331,23.7908 106.9441,23.7878 106.9561,23.7848 C107.0011,23.7718 107.0451,23.7598 107.0891,23.7478 C108.5361,23.3508 110.0011,22.9668 111.4751,22.5998 C111.4941,22.5948 111.5121,22.5908 111.5311,22.5858 C112.2781,22.3988 113.0281,22.2178 113.7801,22.0408 L113.7811,22.0398 L113.8071,22.0338 C115.3151,21.6788 116.8311,21.3418 118.3451,21.0258 C118.3561,21.0238 118.3661,21.0218 118.3761,21.0208 C118.3871,21.0178 118.4001,21.0158 118.4121,21.0128 C119.9341,20.6958 121.4561,20.3998 122.9711,20.1298 C132.3621,29.1858 139.7161,41.2558 142.8871,54.9158 L143.0331,55.5208 C138.5501,55.7068 134.4291,53.2768 133.1371,52.5568 C116.6991,43.3778 96.6711,33.2318 84.9051,31.3738 C84.8971,31.3768 84.8891,31.3808 84.8811,31.3838 C85.6251,31.0938 86.3391,30.8128 87.0251,30.5418" id="Fill-24"></path>
                    <path d="M146.2,53.9158 C143.029,40.2558 135.959,28.1868 126.568,19.1318 C144.708,15.8918 161.513,16.1718 164.946,25.2498 C167.368,31.6528 162.413,41.3138 153.906,50.8468 C151.574,53.4608 148.901,55.0418 146.345,55.1468 C146.345,55.1468 146.337,54.9518 146.296,54.5748 C146.252,54.1748 146.2,53.9158 146.2,53.9158" id="Fill-26"></path>
                </g>
            </g>
        </g>
    </g>
</svg>